{
    "antifeatures": {
        "Ads": "此应用包含广告",
        "DisabledAlgorithm": "此应用的安全签名较弱",
        "KnownVuln": "此应用包含一个已知的安全漏洞",
        "NSFW": "此应用包含不应宣扬或随处可见的内容",
        "NoSourceSince": "源代码不再可用，无法更新",
        "NonFreeAdd": "此应用推广非自由附加组件",
        "NonFreeAssets": "此应用包含非自由资产",
        "NonFreeDep": "此应用依赖于其它非自由应用",
        "NonFreeNet": "此应用推广或完全依赖于一个非自由的网络服务",
        "Tracking": "此应用跟踪并报告你的活动",
        "UpstreamNonFree": "上游源代码不是完全自由的"
    },
    "app_categories": {
        "Connectivity": "连接",
        "Development": "开发",
        "Games": "游戏",
        "Graphics": "图像",
        "Internet": "网络",
        "Money": "理财",
        "Multimedia": "多媒体",
        "Navigation": "导航",
        "Phone & SMS": "通话与短信",
        "Reading": "阅读",
        "Science & Education": "科学与教育",
        "Security": "安全",
        "Sports & Health": "运动与健康",
        "System": "系统",
        "Theming": "主题",
        "Time": "时间",
        "Writing": "记录",
        "show_all_packages": "显示全部 %d 个安装包"
    },
    "index": {
        "download_fdroid": "下载 F-Droid",
        "gpg_signature": "PGP 签名",
        "introduction": "F-Droid 是一个 Android 平台上 FOSS（Free and Open Source Software，自由开源软件）的目录，并提供下载安装支持。使用客户端可以更轻松地浏览、安装及跟进设备上的应用更新。",
        "screenshot": "F-Droid 的 Android 应用截图",
        "title": "F-Droid 是什么？"
    },
    "mirrors": {
        "cn": "中国大陆",
        "de": "德国",
        "indiana": "美国印第安纳州",
        "se": "瑞典",
        "tw": "台湾",
        "ua": "乌克兰"
    },
    "navigation": {
        "about": "关于",
        "apps": "应用",
        "contribute": "参与",
        "documentation": "文档",
        "edit_on_gitlab": "在 Gitlab 上编辑",
        "forum": "论坛",
        "issues": "反馈",
        "news": "新闻",
        "translate_on_weblate": "在 Weblate 上翻译"
    },
    "news": {
        "by": "由",
        "newer_posts": "← 较新帖子",
        "older_posts": "较旧帖子 →",
        "posted_on": "发布于 {{ post_date }}"
    },
    "package": {
        "added_on": "更新于 {{ package_added_date }}",
        "anti_features": "负特征",
        "anti_features_warning": "此应用有一些你未必喜欢的特征。",
        "author": "作者",
        "build_log": "构建日志",
        "build_metadata": "构建元数据",
        "changelog": "更新日志",
        "donate": "捐赠",
        "download": "下载 {{ file_extension }}",
        "flattr": "Flattr",
        "gpg_signature": "PGP 签名",
        "issue_tracker": "问题跟踪系统",
        "liberapay": "Liberapay",
        "license": "许可",
        "minimum_android_version": "该版本需要 Android {{ android_version }} 及以上版本。",
        "new_in_version": "新版本 {{ latest_version }}",
        "opencollective": "Open Collective",
        "package_icon_alt": "安装包图标",
        "package_screenshot_alt": "应用截图",
        "packages": "安装包",
        "permissions": "权限",
        "signed_by_developer": "此安装包由上游开发者构建并签名。",
        "signed_by_fdroid": "此安装包由 F-Droid 构建并签名，且保证与此<a href=\"{{ source_code_url }}\">源代码 tarball</a> 保持一致。",
        "source_code": "源代码",
        "suggest_downloading_via_fdroid": "尽管下面提供了 APK 安装包的下载选项，但你应该注意，以这种方式安装将不会收到更新通知，这是一种不太安全的下载方式。 我们建议你安装使用 F-Droid 客户端。",
        "suggested": "推荐",
        "translation": "翻译",
        "version_info": "<b>版本 {{ package_version }}</b> ({{ package_version_code }})",
        "versions": "版本",
        "website": "网站"
    },
    "permissions": {
        "permdesc_acceptHandovers": "允许此应用继续在另一个应用中发起的通话。",
        "permdesc_accessBackgroundLocation": "即使您并未使用此应用，此应用也可以随时访问位置信息。",
        "permdesc_accessCoarseLocation": "此应用可以在使用时从定位服务获取你的大致位置。必须打开你的设备的定位服务，应用才能获取位置。",
        "permdesc_accessDrmCertificates": "允许此应用提供和使用 DRM 证书。正常应用绝不需要此权限。",
        "permdesc_accessFineLocation": "此应用可以在使用时从定位服务获取你的精确位置。必须打开你的设备的定位服务，应用才能获取位置。这可能会增加耗电量。",
        "permdesc_accessImsCallService": "允许此应用使用 IMS 服务进行呼叫，而无需你的干预。",
        "permdesc_accessLocationExtraCommands": "允许此应用访问额外的位置提供命令。这可能会让应用干扰 GPS 或其他位置源的操作。",
        "permdesc_accessNetworkConditions": "允许此应用监听网络状况的观测信息。正常应用绝不需要此权限。",
        "permdesc_accessNetworkState": "允许此应用查看网络连接的相关信息，例如哪些网络存在并处于连接状态。",
        "permdesc_accessNotifications": "允许此应用检索、检查和清除通知，包括那些由其他应用所发布的通知。",
        "permdesc_accessWifiState": "允许此应用查看 Wi-Fi 网络的相关信息，如是否开启 Wi-Fi、已连接的 Wi-Fi 设备的名称等。",
        "permdesc_accessWimaxState": "允许此应用决定是否启用 WiMAX 和任何已连接的 WiMAX 网络的信息。",
        "permdesc_access_notification_policy": "允许此应用读取和写入“勿扰”模式配置。",
        "permdesc_activityRecognition": "此应用可以识别你的身体活动。",
        "permdesc_addVoicemail": "允许此应用添加消息到你的语音信箱收件箱。",
        "permdesc_answerPhoneCalls": "允许此应用接听来电。",
        "permdesc_audioWrite": "允许此应用修改音乐收藏。",
        "permdesc_backgroundCamera": "此应用可随时使用相机拍摄照片和录制视频。",
        "permdesc_bindCarrierMessagingService": "允许持有者绑定到运营商消息传递服务的顶层接口。正常应用绝不需要此权限。",
        "permdesc_bindCarrierServices": "允许此应用绑定到运营商服务。正常应用绝不需要此权限。",
        "permdesc_bindCellBroadcastService": "允许此应用绑定到小区广播模块，以便在接收到小区广播消息时转发它们。小区广播警报在某些位置发送，以警告你发生紧急情况。收到紧急小区广播时，恶意应用可能会干扰设备的性能或操作。",
        "permdesc_bindConditionProviderService": "允许持有者绑定到 ConditionProviderService 的顶层接口。正常应用绝不需要此权限。",
        "permdesc_bindDreamService": "允许持有者绑定到互动屏保服务的顶层接口。正常应用绝不需要此权限。",
        "permdesc_bindNotificationListenerService": "允许此应用绑定到 NotificationListenerService 的顶级接口。正常应用绝不需要此权限。",
        "permdesc_bind_connection_service": "允许此应用与电话服务交互以便接/打电话。",
        "permdesc_bind_incall_service": "允许此应用控制用户看到通话屏幕的时机和方式。",
        "permdesc_bluetooth": "允许此应用查看手机的蓝牙配置，并建立及接受与配对设备的连接。",
        "permdesc_bluetoothAdmin": "允许此应用配置本地蓝牙手机，并允许其查找远程设备且与之配对。",
        "permdesc_bluetooth_advertise": "允许该应用向附近的蓝牙设备广播",
        "permdesc_bluetooth_connect": "允许该应用连接到配对的蓝牙设备",
        "permdesc_bluetooth_scan": "允许该应用发现附近的蓝牙设备并与其配对",
        "permdesc_bodySensors": "允许此应用访问监测身体状况的传感器所收集的数据，例如心率。",
        "permdesc_broadcastSticky": "允许此应用发送粘性广播消息，此类消息在广播结束后仍会保留。过度使用可能会导致手机使用过多内存，从而降低其速度或稳定性。",
        "permdesc_callCompanionApp": "允许此应用查看和控制设备上正在进行的呼叫。这包括呼叫号码和呼叫状态等信息。",
        "permdesc_callPhone": "允许此应用拨打电话号码，而不需要你的干预。这可能会导致意外费用或呼叫。注意，这并不允许此应用拨打紧急号码。恶意应用可能未经你的确认便拨打电话，从而产生相关费用。",
        "permdesc_camera": "当您使用此应用时，它可以使用相机拍摄照片和录制视频。",
        "permdesc_cameraOpenCloseListener": "此应用可在任何摄像头设备（被应用）打开或关闭时收到回叫信号。",
        "permdesc_changeNetworkState": "允许此应用更改网络连接状态。",
        "permdesc_changeTetherState": "允许此应用更改网络共享连接状态。",
        "permdesc_changeWifiMulticastState": "允许此应用接收使用多播地址发送到 Wi-Fi 网络上所有设备，而不仅仅是你的手机的数据包。该操作的耗电量比非多播模式要高。",
        "permdesc_changeWifiState": "允许此应用连接到 Wi-Fi 接入点并断开与 Wi-Fi 接入点的连接，以及改变 Wi-Fi 网络的设备配置。",
        "permdesc_changeWimaxState": "允许此应用将手机连接到 WiMAX 网络并断开手机与 WiMAX 网络的连接。",
        "permdesc_connection_manager": "允许此应用管理电信网络连接。",
        "permdesc_control_incall_experience": "允许此应用提供通话中用户体验。",
        "permdesc_createNetworkSockets": "允许此应用创建网络套接字和使用自定义网络协议。浏览器和其他应用提供了将数据发送到互联网的方法，因此不需要此权限将数据发送到互联网。",
        "permdesc_disableKeyguard": "允许此应用禁用键盘锁和任何相关的密码安全措施。例如，手机在接收来电时禁用键盘锁，然后在通话结束时重新启用键盘锁。",
        "permdesc_enableCarMode": "允许此应用启用车载模式。",
        "permdesc_exemptFromAudioRecordRestrictions": "免除此应用录制音频的限制。",
        "permdesc_expandStatusBar": "允许此应用展开或收起状态栏。",
        "permdesc_foregroundService": "允许此应用使用前台服务。",
        "permdesc_fullScreenIntent": "允许该应用在锁定的设备上以全屏活动的形式显示通知",
        "permdesc_getAccounts": "允许此应用获取手机已知的帐号列表，其中可能包括由已安装的应用创建的任意帐号。",
        "permdesc_getPackageSize": "允许此应用检索其代码、数据和缓存大小",
        "permdesc_getTasks": "允许此应用检索近期的和当前正在运行的任务的相关信息。此权限可让应用了解设备上使用了哪些应用。",
        "permdesc_handoverStatus": "允许此应用接收当前 Android Beam 传输的信息",
        "permdesc_highSamplingRateSensors": "允许应用以高于 200 Hz 的频率对传感器数据进行采样",
        "permdesc_imagesWrite": "允许此应用修改照片收藏。",
        "permdesc_install_shortcut": "允许此应用自行添加主屏幕快捷方式。",
        "permdesc_invokeCarrierSetup": "允许持有者调用运营商提供的配置应用。正常应用绝不需要此权限。",
        "permdesc_killBackgroundProcesses": "允许此应用结束其他应用的后台进程。此权限可导致其他应用停止运行。",
        "permdesc_manageFace": "允许此应用调用方法来添加和删除可用的人脸模板。",
        "permdesc_manageFingerprint": "允许此应用调用方法来添加和删除可用的指纹模板。",
        "permdesc_manageNetworkPolicy": "允许此应用管理网络策略和定义针对特定应用的规则。",
        "permdesc_manageOngoingCalls": "允许应用查看设备上正在进行的通话的详细信息并控制这些通话。",
        "permdesc_manageOwnCalls": "允许此应用通过系统转接来电，以改善通话体验。",
        "permdesc_manageProfileAndDeviceOwners": "允许此应用设置配置文件所有者和设备所有者。",
        "permdesc_mediaLocation": "允许此应用从媒体收藏中读取位置信息。",
        "permdesc_modifyAudioSettings": "允许此应用修改全局音频设置，例如音量和用于输出的扬声器。",
        "permdesc_modifyNetworkAccounting": "允许此应用修改计算各应用网络使用情况的方式。正常应用不应使用此权限。",
        "permdesc_nfc": "允许此应用与近场通讯 (NFC) 标签、卡和读取器通信。",
        "permdesc_persistentActivity": "允许此应用在内存中持续保留其自身的某些组件。这会限制其他应用可用的内存，减缓手机运行速度。",
        "permdesc_preferredPaymentInfo": "允许此应用获得首选的 nfc 支付服务信息，如注册的辅助程序和路由目的地。",
        "permdesc_processOutgoingCalls": "允许此应用在拨出电话时查看拨打的电话号码，并选择改为拨打其他号码或完全中止通话。",
        "permdesc_queryAllPackages": "允许应用查看所有已安装的软件包。",
        "permdesc_readCalendar": "此应用可读取手机上存储的所有日历事件，并分享或保存日历数据。",
        "permdesc_readCallLog": "此应用可读取通话记录。",
        "permdesc_readCellBroadcasts": "允许此应用读取设备收到的小区广播消息。小区广播警报在某些位置发送，以警告你发生的紧急情况。收到紧急小区广播时，恶意应用可干扰设备的性能或操作。",
        "permdesc_readContacts": "允许此应用读取手机上存储的联系人数据。此应用还将有权访问手机上已创建联系人的帐号，其中可能包括已安装的应用所创建的帐号。此权限允许此应用保存联系人数据，恶意应用可在你不知情的情况下分享联系人数据。",
        "permdesc_readHistoryBookmarks": "允许此应用读取浏览器访问过的所有网址记录以及浏览器的所有书签。注意：第三方浏览器或其他具有网页浏览功能的应用可能不会强制要求此权限。",
        "permdesc_readInstallSessions": "允许此应用读取安装会话。这允许此应用查看活跃的应用包安装的详情。",
        "permdesc_readNetworkUsageHistory": "允许此应用读取特定网络和应用的网络使用情况历史记录。",
        "permdesc_readPhoneNumbers": "允许此应用访问设备的电话号码。",
        "permdesc_readPhoneState": "允许此应用访问设备的电话功能。此权限可让应用确定本机号码和设备 ID、是否正处于通话状态以及拨打的号码。",
        "permdesc_readSms": "此应用可读取手机上存储的所有短信。",
        "permdesc_readSyncSettings": "允许此应用读取某个帐号的同步设置。例如，此权限可确定“联系人”应用是否与某个帐号同步。",
        "permdesc_readSyncStats": "允许此应用读取某个帐号的同步统计信息，包括同步事件历史记录和同步数据量。",
        "permdesc_receiveBootCompleted": "允许此应用在系统完成引导后立即启动。这样可能会延长开机时间，并因始终运行而降低手机总体运行速度。",
        "permdesc_receiveMms": "允许此应用接收和处理彩信。这意味着，应用可以不经确认便监视发送到设备的彩信，或删除发送到设备的彩信。",
        "permdesc_receiveSms": "允许此应用接收和处理短信。这意味着，应用可以不经确认监视发送到设备的短信，或删除发送到设备的短信。",
        "permdesc_receiveWapPush": "允许此应用接收并处理 WAP 消息。此权限包括监视或删除发送给你的消息而不将其显示给你的能力。",
        "permdesc_recordAudio": "当您使用此应用时，它可以使用麦克风录音。",
        "permdesc_recordBackgroundAudio": "此应用可以随时使用麦克风录音。",
        "permdesc_register_call_provider": "允许此应用注册新的电信网络连接。",
        "permdesc_register_sim_subscription": "允许此应用注册新的电信 SIM 卡连接。",
        "permdesc_removeDrmCertificates": "允许此应用移除 DRM 证书。正常应用绝不需要此权限。",
        "permdesc_reorderTasks": "允许此应用将任务移动到前台和后台。此应用可无需你手动输入便完成这些操作。",
        "permdesc_requestDeletePackages": "允许此应用请求删除安装包。",
        "permdesc_requestIgnoreBatteryOptimizations": "允许此应用请求忽略针对自身的电池优化的权限。",
        "permdesc_requestInstallPackages": "允许此应用请求安装软件包。",
        "permdesc_requestPasswordComplexity": "允许此应用了解屏幕锁的复杂程度（高、中、低或无），即屏幕锁的可能长度范围和类型。应用还可以建议用户将屏幕锁更新为特定复杂程度，但用户可以选择忽略该建议并离开应用。请注意，系统不会以纯文本形式存储屏幕锁选项的内容，因此应用不会知道确切密码。",
        "permdesc_route_media_output": "允许此应用将媒体输出线路更改到其他外部设备。",
        "permdesc_runInBackground": "此应用可在后台运行。这会加快耗电速度。",
        "permdesc_sdcardRead": "允许此应用读取共享存储的内容。",
        "permdesc_sdcardWrite": "允许此应用写入共享存储的内容。",
        "permdesc_sendSms": "允许此应用发送短信。此权限可能会导致意外费用。恶意应用可不经确认发送信息，从而耗费你的钱财。",
        "permdesc_setAlarm": "允许此应用在已安装的闹钟应用中设置闹钟。有些闹钟应用可能没有实现此功能。",
        "permdesc_setInputCalibration": "允许此应用修改触摸屏的校准参数。正常应用绝不需要此权限。",
        "permdesc_setTimeZone": "允许此应用更改手机的时区。",
        "permdesc_setWallpaper": "允许此应用设置系统壁纸。",
        "permdesc_setWallpaperHints": "允许此应用设置系统壁纸尺寸的提示。",
        "permdesc_sim_communication": "允许此应用向 SIM 卡发送命令。此权限十分危险。",
        "permdesc_startViewPermissionUsage": "允许此应用启动应用的权限使用情况。正常应用绝不需要此权限。",
        "permdesc_statusBar": "允许此应用停用状态栏或添加和删除系统图标。",
        "permdesc_statusBarService": "允许以状态栏形式显示此应用。",
        "permdesc_subscribedFeedsRead": "允许此应用获取当前同步的订阅的详情。",
        "permdesc_systemAlertWindow": "此应用可显示在其他应用或屏幕其他部分的上方。这会干扰正常的应用使用，并改变其他应用的显示方式。",
        "permdesc_systemCamera": "此特权或系统应用可以随时使用系统摄像头拍照和录制视频。此应用还需具备 android.permission.CAMERA 权限",
        "permdesc_transmitIr": "允许此应用使用手机的红外线发射器。",
        "permdesc_uninstall_shortcut": "允许此应用自行删除主屏幕快捷方式。",
        "permdesc_useBiometric": "允许此应用使用生物识别硬件进行身份验证",
        "permdesc_useDataInBackground": "此应用可在后台使用数据。这会增加流量消耗。",
        "permdesc_useFaceAuthentication": "允许此应用使用人脸解锁硬件进行身份验证",
        "permdesc_useFingerprint": "允许此应用使用指纹硬件进行身份验证",
        "permdesc_use_sip": "允许此应用拨打和接听 SIP 电话。",
        "permdesc_uwb_ranging": "允许应用确定附近超宽带设备之间的相对位置",
        "permdesc_vibrate": "允许此应用控制振动器。",
        "permdesc_vibrator_state": "允许此应用访问振动器状态。",
        "permdesc_videoWrite": "允许此应用修改你的视频收藏。",
        "permdesc_wakeLock": "允许此应用阻止手机进入休眠状态。",
        "permdesc_writeCalendar": "此应用可添加、移除或更改手机上的日历事件。此应用能够发送貌似来自日历所有者的消息，或不通知所有者便更改事件。",
        "permdesc_writeCallLog": "允许此应用修改手机的通话记录，包括来去电的数据。恶意应用可借此清除或修改通话记录。",
        "permdesc_writeContacts": "允许此应用修改手机上存储的联系人数据。此权限允许此应用删除联系人数据。",
        "permdesc_writeGeolocationPermissions": "允许此应用修改“浏览器”的地理位置权限。恶意应用可借此向任意网站发送位置信息。",
        "permdesc_writeHistoryBookmarks": "允许此应用修改手机上存储的浏览器历史记录或书签。此权限可让应用清除或修改浏览器数据。请注意：第三方浏览器或具备网页浏览功能的其他应用可能不会强制索要此权限。",
        "permdesc_writeSettings": "允许此应用修改系统的设置数据。恶意应用可借此破坏系统配置。",
        "permdesc_writeSyncSettings": "允许此应用修改某个帐号的同步设置。例如，此权限可用来启用“联系人”应用与某个帐号之间的同步。",
        "permgroupbackgroundrequest_location": "允许此应用请求后台位置。",
        "permgroupbackgroundrequestdetail_location": "此应用目前只能在你使用它时访问位置",
        "permgroupdesc_activityRecognition": "获取你的身体活动数据",
        "permgroupdesc_calendar": "访问你的日历",
        "permgroupdesc_calllog": "读取和写入手机通话记录",
        "permgroupdesc_camera": "拍摄照片和录制视频",
        "permgroupdesc_contacts": "访问你的通讯录",
        "permgroupdesc_location": "获取此设备的位置信息",
        "permgroupdesc_microphone": "录制音频",
        "permgroupdesc_nearby_devices": "发现并连接到附近的设备",
        "permgroupdesc_phone": "拨打电话和管理通话",
        "permgroupdesc_sensors": "访问与你的生命体征相关的传感器数据",
        "permgroupdesc_sms": "发送和查看短信",
        "permgroupdesc_storage": "访问你的设备上的照片、媒体内容和文件",
        "permgrouplab_activityRecognition": "身体活动",
        "permgrouplab_calendar": "日历",
        "permgrouplab_calllog": "通话记录",
        "permgrouplab_camera": "相机",
        "permgrouplab_contacts": "通讯录",
        "permgrouplab_location": "位置信息",
        "permgrouplab_microphone": "麦克风",
        "permgrouplab_nearby_devices": "附近的设备",
        "permgrouplab_phone": "电话",
        "permgrouplab_sensors": "身体传感器",
        "permgrouplab_sms": "短信",
        "permgrouplab_storage": "文件和媒体",
        "permgrouprequest_activityRecognition": "允许此应用跟踪你的活动。",
        "permgrouprequest_calendar": "允许<b></b>",
        "permgrouprequest_calllog": "允许<b></b>",
        "permgrouprequest_camera": "允许<b></b>",
        "permgrouprequest_contacts": "允许<b></b>",
        "permgrouprequest_location": "允许<b></b>",
        "permgrouprequest_microphone": "允许<b></b>",
        "permgrouprequest_phone": "允许<b></b>",
        "permgrouprequest_sensors": "允许<b></b>",
        "permgrouprequest_sms": "允许<b></b>",
        "permgrouprequest_storage": "允许<b></b>",
        "permgrouprequestdetail_location": "应用只有在你使用它时才能访问位置",
        "permission_request_notification_for_app_with_subtitle": "权限请求方",
        "permlab_acceptHandover": "继续进行来自其他应用的通话",
        "permlab_accessBackgroundLocation": "在后台访问位置",
        "permlab_accessCoarseLocation": "只有在前台运行时才能获取大致位置信息",
        "permlab_accessDrmCertificates": "访问 DRM 证书",
        "permlab_accessFineLocation": "只能在前台获取精确的位置信息",
        "permlab_accessImsCallService": "使用 IMS 通话服务",
        "permlab_accessLocationExtraCommands": "访问额外的位置提供程序命令",
        "permlab_accessNetworkConditions": "监听网络状况的观测信息",
        "permlab_accessNetworkState": "查看网络连接",
        "permlab_accessNotifications": "访问通知",
        "permlab_accessWifiState": "查看 Wi-Fi 连接",
        "permlab_accessWimaxState": "建立或断开 WiMAX 网络连接",
        "permlab_access_notification_policy": "“勿扰”模式使用权限",
        "permlab_activityRecognition": "识别身体活动",
        "permlab_addVoicemail": "添加语音邮件",
        "permlab_answerPhoneCalls": "接听来电",
        "permlab_audioWrite": "修改你的音乐收藏",
        "permlab_backgroundCamera": "在后台拍摄照片和视频",
        "permlab_bindCarrierMessagingService": "绑定到运营商消息传递服务",
        "permlab_bindCarrierServices": "绑定到运营商服务",
        "permlab_bindCellBroadcastService": "转发小区广播消息",
        "permlab_bindConditionProviderService": "绑定到条件提供服务",
        "permlab_bindDreamService": "绑定到互动屏保服务",
        "permlab_bindNotificationListenerService": "绑定到通知侦听器服务",
        "permlab_bind_connection_service": "与电话服务交互",
        "permlab_bind_incall_service": "与通话屏幕交互",
        "permlab_bluetooth": "与蓝牙设备配对",
        "permlab_bluetoothAdmin": "访问蓝牙设置",
        "permlab_bluetooth_advertise": "向附近的蓝牙设备广播",
        "permlab_bluetooth_connect": "连接到配对的蓝牙设备",
        "permlab_bluetooth_scan": "发现并配对附近的蓝牙设备",
        "permlab_bodySensors": "访问身体传感器（如心率监测器）",
        "permlab_broadcastSticky": "发送粘滞广播",
        "permlab_callCompanionApp": "查看并控制通过系统拨打的电话。",
        "permlab_callPhone": "直接拨打电话号码",
        "permlab_camera": "拍摄照片和视频",
        "permlab_cameraOpenCloseListener": "允许此应用或服务接收与打开或关闭摄像头设备有关的回叫信号。",
        "permlab_changeNetworkState": "更改网络连接性",
        "permlab_changeTetherState": "更改网络共享连接",
        "permlab_changeWifiMulticastState": "允许接收 Wi-Fi 多播",
        "permlab_changeWifiState": "连接和断开 Wi-Fi 网络连接",
        "permlab_changeWimaxState": "更改 WiMAX 状态",
        "permlab_connection_manager": "管理电信网络连接",
        "permlab_control_incall_experience": "向用户提供通话体验",
        "permlab_createNetworkSockets": "拥有完全的网络访问权限",
        "permlab_disableKeyguard": "停用你的屏幕锁定",
        "permlab_enableCarMode": "启用车载模式",
        "permlab_exemptFromAudioRecordRestrictions": "免除录音限制",
        "permlab_expandStatusBar": "展开/收起状态栏",
        "permlab_foregroundService": "运行前台服务",
        "permlab_fullScreenIntent": "在锁定的设备上以全屏活动的形式显示通知",
        "permlab_getAccounts": "查找设备上的帐号",
        "permlab_getPackageSize": "计算应用存储空间",
        "permlab_getTasks": "检索正在运行的应用",
        "permlab_handoverStatus": "接收 AndroidBeam 的传输状态",
        "permlab_highSamplingRateSensors": "以高采样率访问传感器数据",
        "permlab_imagesWrite": "修改你的照片收藏",
        "permlab_install_shortcut": "安装快捷方式",
        "permlab_invokeCarrierSetup": "调用运营商提供的配置应用",
        "permlab_killBackgroundProcesses": "关闭其他应用",
        "permlab_manageFace": "管理人脸解锁硬件",
        "permlab_manageFingerprint": "管理指纹硬件",
        "permlab_manageNetworkPolicy": "管理网络策略",
        "permlab_manageOngoingCalls": "管理正在进行的通话",
        "permlab_manageOwnCalls": "通过系统转接来电",
        "permlab_manageProfileAndDeviceOwners": "管理个人资料和设备所有者",
        "permlab_mediaLocation": "从你的媒体收藏中读取位置信息",
        "permlab_modifyAudioSettings": "更改你的音频设置",
        "permlab_modifyNetworkAccounting": "修改网络使用情况记录方式",
        "permlab_nfc": "控制 NFC",
        "permlab_persistentActivity": "让应用始终运行",
        "permlab_preferredPaymentInfo": "首选 NFC 付款服务信息",
        "permlab_processOutgoingCalls": "重新设置呼出电话的路径",
        "permlab_queryAllPackages": "查询所有软件包",
        "permlab_readCalendar": "读取日历活动和详情",
        "permlab_readCallLog": "读取通话记录",
        "permlab_readCellBroadcasts": "读取小区广播消息",
        "permlab_readContacts": "读取联系人",
        "permlab_readHistoryBookmarks": "读取你的网络书签和历史记录",
        "permlab_readInstallSessions": "读取安装会话",
        "permlab_readNetworkUsageHistory": "读取网络使用情况历史记录",
        "permlab_readPhoneNumbers": "读取电话号码",
        "permlab_readPhoneState": "读取手机状态和身份",
        "permlab_readSms": "读取短信",
        "permlab_readSyncSettings": "读取同步设置",
        "permlab_readSyncStats": "读取同步统计信息",
        "permlab_receiveBootCompleted": "开机启动",
        "permlab_receiveMms": "接收讯息（彩信）",
        "permlab_receiveSms": "接收讯息（短信）",
        "permlab_receiveWapPush": "接收讯息 (WAP)",
        "permlab_recordAudio": "录音",
        "permlab_recordBackgroundAudio": "在后台录音",
        "permlab_register_call_provider": "注册新的电信网络连接",
        "permlab_register_sim_subscription": "注册新的电信 SIM 卡连接",
        "permlab_removeDrmCertificates": "移除 DRM 证书",
        "permlab_reorderTasks": "对正在运行的应用重新排序",
        "permlab_requestDeletePackages": "请求删除文件包",
        "permlab_requestIgnoreBatteryOptimizations": "请求忽略电池优化",
        "permlab_requestInstallPackages": "请求安装文件包",
        "permlab_requestPasswordComplexity": "请求屏幕锁定复杂度",
        "permlab_route_media_output": "更改媒体输出线路",
        "permlab_runInBackground": "在后台运行",
        "permlab_sdcardRead": "读取你的共享存储空间中的内容",
        "permlab_sdcardWrite": "修改或删除你的共享存储空间中的内容",
        "permlab_sendSms": "发送短信",
        "permlab_setAlarm": "设置闹钟",
        "permlab_setInputCalibration": "更改输入设备校准设置",
        "permlab_setTimeZone": "设置时区",
        "permlab_setWallpaper": "设置壁纸",
        "permlab_setWallpaperHints": "调整你的壁纸大小",
        "permlab_sim_communication": "向 SIM 卡发送命令",
        "permlab_startViewPermissionUsage": "授权使用“查看权限”",
        "permlab_statusBar": "停用或修改状态栏",
        "permlab_statusBarService": "用作状态栏",
        "permlab_subscribedFeedsRead": "读取订阅的供稿",
        "permlab_systemAlertWindow": "此应用可显示在其他应用上方",
        "permlab_systemCamera": "允许此应用或服务访问系统摄像头进行拍照和录像",
        "permlab_transmitIr": "发射红外线",
        "permlab_uninstall_shortcut": "卸载快捷方式",
        "permlab_useBiometric": "使用生物特征硬件",
        "permlab_useDataInBackground": "在后台使用数据",
        "permlab_useFaceAuthentication": "使用人脸解锁硬件",
        "permlab_useFingerprint": "使用指纹硬件",
        "permlab_use_sip": "拨打/接听 SIP 电话",
        "permlab_uwb_ranging": "确定附近超宽带设备之间的相对位置",
        "permlab_vibrate": "控制振动",
        "permlab_videoWrite": "修改你的视频收藏",
        "permlab_wakeLock": "防止手机休眠",
        "permlab_writeCalendar": "添加或修改日历活动，并在所有者不知情的情况下向邀请对象发送电子邮件",
        "permlab_writeCallLog": "写入通话记录",
        "permlab_writeContacts": "修改你的通讯录",
        "permlab_writeGeolocationPermissions": "修改“浏览器”地理位置的权限",
        "permlab_writeHistoryBookmarks": "写入网络书签和历史记录",
        "permlab_writeSettings": "修改系统设置",
        "permlab_writeSyncSettings": "启用和停用同步"
    },
    "sidebars": {
        "donate": {
            "bank_transfer_name": "名称",
            "bitcoin_alt": "使用比特币捐赠",
            "credit_card": "信用卡",
            "crypto": "加密货币",
            "currency": "货币",
            "flattr_alt": "使用 Flattr 捐赠",
            "heading": "捐赠",
            "hellotux": "👕T 恤衫👕来自",
            "hellotux_alt": "HELLOTUX",
            "hellotux_donation": "每卖出一件衬衫 F-Droid 将获得 3 欧元。",
            "liberapay_alt": "使用 Liberapay 捐赠",
            "litecoin_alt": "使用 Litecoin 捐赠",
            "more_options": "更多选项",
            "opencollective_alt": "捐赠给我们的 Collective",
            "paypal": "PayPal",
            "paypal_alt": "使用 PayPal 捐赠",
            "powered_by_donations": "你的捐赠将是 F-Droid 运作的驱动力！",
            "via_bank_transfer": "银行转账"
        },
        "lang": {
            "change": "更改"
        },
        "last_updated": {
            "heading": "最近更新"
        },
        "latest_packages": {
            "heading": "最新应用"
        },
        "news": {
            "heading": "新闻"
        },
        "search": {
            "heading": "搜索应用",
            "noscript": "需启用 JavaScript",
            "search": "搜索"
        }
    }
}
